Retail Forecasting Project
…
.model

lb_stat

lb_pvalue

arimap410

77.54192

7.3e-06

The forecasts of the ARIMA model with 80 and 95% prediction interval is as shown below in figure 5.2.

## # A tsibble: 24 x 6 [1M]
## # Key:       .model [1]
##    .model       Month          Turnover .mean                  `80%`
##    <chr>        <mth>            <dist> <dbl>                 <hilo>
##  1 arimap410 2016 Jan t(N(6.7, 0.0028))  225. [214.9883, 235.1251]80
##  2 arimap410 2016 Feb t(N(6.7, 0.0036))  220. [209.0981, 231.5387]80
##  3 arimap410 2016 Mar  t(N(6.8, 0.004))  237. [224.5121, 249.8410]80
##  4 arimap410 2016 Apr t(N(6.7, 0.0049))  231. [217.3158, 244.7697]80
##  5 arimap410 2016 May t(N(6.8, 0.0054))  241. [225.8983, 255.7742]80
##  6 arimap410 2016 Jun t(N(6.7, 0.0061))  231. [215.9031, 246.4157]80
##  7 arimap410 2016 Jul t(N(6.8, 0.0069))  241. [224.7831, 258.5831]80
##  8 arimap410 2016 Aug t(N(6.8, 0.0075))  242. [224.9295, 260.2846]80
##  9 arimap410 2016 Sep t(N(6.8, 0.0082))  241. [223.1033, 259.9227]80
## 10 arimap410 2016 Oct t(N(6.8, 0.0088))  248. [228.8818, 268.2435]80
## # ... with 14 more rows, and 1 more variable: 95% <hilo>
…
Figure 5.3: The figure shows the residual diagnostics of the ETS model. The ACF plot shows that there are some significant spikes.

## # A tibble: 1 x 3
##   .model lb_stat lb_pvalue
##   <chr>    <dbl>     <dbl>
## 1 MAM       109.  2.84e-14

The forecasts of the ETS model with 80 and 95% prediction interval is as shown below in figure 5.4.

## # A tsibble: 96 x 6 [1M]
## # Key:       .model [4]
##    .model    Month    Turnover .mean                  `80%`
##    <chr>     <mth>      <dist> <dbl>                 <hilo>
##  1 auto   2016 Jan  N(226, 68)  226. [215.8578, 236.9619]80
##  2 auto   2016 Feb  N(216, 77)  216. [204.6774, 227.1901]80
##  3 auto   2016 Mar N(236, 110)  236. [222.2761, 249.2004]80
##  4 auto   2016 Apr N(227, 119)  227. [212.9414, 240.9321]80
##  5 auto   2016 May N(236, 148)  236. [220.6151, 251.7473]80
##  6 auto   2016 Jun N(228, 154)  228. [211.7629, 243.5810]80
##  7 auto   2016 Jul N(235, 182)  235. [217.6863, 252.2866]80
##  8 auto   2016 Aug N(237, 204)  237. [218.7603, 255.3499]80
##  9 auto   2016 Sep N(235, 218)  235. [216.0360, 253.8949]80
## 10 auto   2016 Oct N(241, 249)  241. [221.0315, 261.4670]80
## # ... with 86 more rows, and 1 more variable: 95% <hilo>
…
